…
```r
steps_per_day <- data %>% 
  group_by(date) %>% 
  summarise(total_steps = sum(steps))

print(steps_per_day)
```

```
## # A tibble: 61 x 2
##    date       total_steps
##    <date>           <int>
##  1 2012-10-01          NA
##  2 2012-10-02         126
##  3 2012-10-03       11352
##  4 2012-10-04       12116
##  5 2012-10-05       13294
##  6 2012-10-06       15420
##  7 2012-10-07       11015
##  8 2012-10-08          NA
##  9 2012-10-09       12811
## 10 2012-10-10        9900
## # ... with 51 more rows
```
…
## What is the average daily activity pattern?

### 1. Make a time series plot (i.e. 𝚝𝚢𝚙𝚎 = "𝚕") of the 5-minute interval (x-axis) and the average number of steps taken, averaged across all days (y-axis)


```r
interval_averages <- data %>%
  group_by(interval) %>%
  summarise(average = mean(steps, na.rm=TRUE))

print(interval_averages)
```

```
## # A tibble: 288 x 2
##    interval average
##       <int>   <dbl>
##  1        0  1.72  
##  2        5  0.340 
##  3       10  0.132 
##  4       15  0.151 
##  5       20  0.0755
##  6       25  2.09  
##  7       30  0.528 
##  8       35  0.868 
##  9       40  0.    
## 10       45  1.47  
## # ... with 278 more rows
```
…
### 4. Make a histogram of the total number of steps taken each day and Calculate and report the mean and median total number of steps taken per day. Do these values differ from the estimates from the first part of the assignment? What is the impact of imputing missing data on the estimates of the total daily number of steps?


```r
library(grid)

imputed_steps_per_day <- imputed_data %>% 
  group_by(date) %>% 
  summarise(total_steps = sum(steps))

print(imputed_steps_per_day)
```

```
## # A tibble: 61 x 2
##    date       total_steps
##    <date>           <int>
##  1 2012-10-01       10641
##  2 2012-10-02         126
##  3 2012-10-03       11352
##  4 2012-10-04       12116
##  5 2012-10-05       13294
##  6 2012-10-06       15420
##  7 2012-10-07       11015
##  8 2012-10-08       10641
##  9 2012-10-09       12811
## 10 2012-10-10        9900
## # ... with 51 more rows
```
…
```
## [1] "Median (imputed): 10641"
```

```r
imputed_steps_per_day <- imputed_data %>% 
  group_by(date) %>% 
  summarise(total_steps = sum(steps))

print(imputed_steps_per_day)
```

```
## # A tibble: 61 x 2
##    date       total_steps
##    <date>           <int>
##  1 2012-10-01       10641
##  2 2012-10-02         126
##  3 2012-10-03       11352
##  4 2012-10-04       12116
##  5 2012-10-05       13294
##  6 2012-10-06       15420
##  7 2012-10-07       11015
##  8 2012-10-08       10641
##  9 2012-10-09       12811
## 10 2012-10-10        9900
## # ... with 51 more rows
```
…
### 2. Make a panel plot containing a time series plot (i.e. 𝚝𝚢𝚙𝚎 = "𝚕") of the 5-minute interval (x-axis) and the average number of steps taken, averaged across all weekday days or weekend days (y-axis). See the README file in the GitHub repository to see an example of what this plot should look like using simulated data.


```r
daytype_interval_averages <- imputed_data %>%
  group_by(weekend_label, interval) %>%
  summarise(average = mean(steps, na.rm=TRUE))

print(daytype_interval_averages)
```

```
## # A tibble: 576 x 3
## # Groups:   weekend_label [?]
##    weekend_label interval average
##    <fct>            <int>   <dbl>
##  1 weekday              0  2.16  
##  2 weekday              5  0.400 
##  3 weekday             10  0.156 
##  4 weekday             15  0.178 
##  5 weekday             20  0.0889
##  6 weekday             25  1.58  
##  7 weekday             30  0.622 
##  8 weekday             35  1.02  
##  9 weekday             40  0.    
## 10 weekday             45  1.73  
## # ... with 566 more rows
```
…
